…
#> 1 TCD       ALL      Chad      Mandoul   Bedaya    TDDSR2…    81183 NA      17.8
#> 2 TCD       ALL      Chad      Mandoul   Bedjondo  TDDSR2…   188196 NA      17.2
#> 3 TCD       ALL      Chad      Mandoul   Bekourou  TDDSR2…    68281 NA      17.4
#> 4 TCD       ALL      Chad      Mandoul   Bouna     TDDSR2…   120721 NA      17.5
#> 5 TCD       ALL      Chad      Mandoul   Goundi    TDDSR2…   232776 NA      17.5
#> 6 TCD       ALL      Chad      Mandoul   Koumra    TDDSR2…   184139 NA      17.5
#> 7 TCD       ALL      Chad      Mandoul   Moissala  TDDSR2…   129855 NA      17.9
#> # ℹ 2 more variables: lat <dbl>, geometry <MULTIPOLYGON [°]>
sf_tcd$adm4
#> Simple feature collection with 1193 features and 12 fields
#> Geometry type: POINT
#> Dimension:     XY
#> Bounding box:  xmin: 17.0567 ymin: 7.833333 xmax: 18.14093 ymax: 9.570679
#> Geodetic CRS:  WGS 84
#> # A tibble: 1,193 × 13
#>    adm0_iso3 adm0_sub adm0_name adm1_name adm2_name adm3_name adm4_name pcode   
#>  * <chr>     <chr>    <chr>     <chr>     <chr>     <chr>     <chr>     <chr>   
#>  1 TCD       ALL      Chad      Mandoul   Bedaya    Bedaya    Badbo     TDDSR20…
#>  2 TCD       ALL      Chad      Mandoul   Bedaya    Bedaya    Balemani  TDDSR20…
#>  3 TCD       ALL      Chad      Mandoul   Bedaya    Bedaya    Bateba    TDDSR20…
#>  4 TCD       ALL      Chad      Mandoul   Bedaya    Bedaya    Bedaya    TDDSR20…
#>  5 TCD       ALL      Chad      Mandoul   Bedaya    Bedaya    Begosso   TDDSR20…
#>  6 TCD       ALL      Chad      Mandoul   Bedaya    Bedaya    Beko      TDDSR20…
#>  7 TCD       ALL      Chad      Mandoul   Bedaya    Bedaya    Bendana   TDDSR20…
#>  8 TCD       ALL      Chad      Mandoul   Bedaya    Bedaya    Benguebe  TDDSR20…
#>  9 TCD       ALL      Chad      Mandoul   Bedaya    Bedaya    Bessada   TDDSR20…
#> 10 TCD       ALL      Chad      Mandoul   Bedaya    Bedaya    Boubo     TDDSR20…
#> # ℹ 1,183 more rows
#> # ℹ 5 more variables: adm4_type <chr>, adm4_pop <int>, lon <dbl>, lat <dbl>,
#> #   geometry <POINT [°]>
```
