epishiny • epishiny
…
#> 6 SLE       ALL      Sierra Leone Western   Western Ar… East III  SL04…   498827
#> 7 SLE       ALL      Sierra Leone Western   Western Ar… West I    SL04…    51938
#> 8 SLE       ALL      Sierra Leone Western   Western Ar… West II   SL04…   128935
#> 9 SLE       ALL      Sierra Leone Western   Western Ar… West III  SL04…   363112
#> # ℹ 4 more variables: lon <dbl>, lat <dbl>, source <chr>,
#> #   geometry <MULTIPOLYGON [°]>
#> 
#> $adm4
#> Simple feature collection with 74 features and 12 fields
#> Attribute-geometry relationships: constant (4), NAs (8)
#> Geometry type: MULTIPOLYGON
#> Dimension:     XY
#> Bounding box:  xmin: -13.29853 ymin: 8.289232 xmax: -13.06064 ymax: 8.499624
#> Geodetic CRS:  WGS 84
#> # A tibble: 74 × 13
#>    adm0_iso3 adm0_sub adm0_name    adm1_name adm2_name adm3_name adm4_name pcode
#>  * <chr>     <chr>    <chr>        <chr>     <chr>     <chr>     <chr>     <chr>
#>  1 SLE       ALL      Sierra Leone Western   Western … Mountain… Bathurst  SL04…
#>  2 SLE       ALL      Sierra Leone Western   Western … Mountain… Charlotte SL04…
#>  3 SLE       ALL      Sierra Leone Western   Western … Mountain… Gloucest… SL04…
#>  4 SLE       ALL      Sierra Leone Western   Western … Mountain… Leicester SL04…
#>  5 SLE       ALL      Sierra Leone Western   Western … Mountain… Regent    SL04…
#>  6 SLE       ALL      Sierra Leone Western   Western … Waterloo… Hastings… SL04…
#>  7 SLE       ALL      Sierra Leone Western   Western … York Rur… Gbendembu SL04…
#>  8 SLE       ALL      Sierra Leone Western   Western … York Rur… Goderich… SL04…
#>  9 SLE       ALL      Sierra Leone Western   Western … York Rur… Goderich… SL04…
#> 10 SLE       ALL      Sierra Leone Western   Western … York Rur… Hamilton  SL04…
#> # ℹ 64 more rows
#> # ℹ 5 more variables: adm4_pop <int>, lon <dbl>, lat <dbl>, source <chr>,
#> #   geometry <MULTIPOLYGON [°]>
…
